%YAML 1.1
%TAG !u! tag:unity3d.com,2011:
--- !u!1045 &1
EditorBuildSettings:
  m_ObjectHideFlags: 0
  serializedVersion: 2
  m_Scenes:
  - enabled: 1
    path: Assets/Scenes/SampleScene.unity
    guid: 9fc0d4010bbf28b4594072e72b8655ab
  - enabled: 1
    path: Assets/Scenes/GameOverScene.unity
    guid: 48c1adf9f111c214eba22bcb3a186c67
  - enabled: 1
    path: Assets/Scenes/GameClearScene.unity
    guid: ff3ff70fbb998b447a022a73614aad73
  - enabled: 1
    path: Assets/Scenes/TitleScene.unity
    guid: acb6ff2d9cfff80499b6409c83f5030d
  m_configObjects: {}
